{
	"info": {
		"_postman_id": "de3ffc8b-ab9c-409f-9123-8f8da8268104",
		"name": "CAPSTOONE_2_API",
		"schema": "https://schema.getpostman.com/json/collection/v2.1.0/collection.json",
		"_exporter_id": "25584854"
	},
	"item": [
		{
			"name": "User_registration",
			"request": {
				"method": "POST",
				"header": [],
				"body": {
					"mode": "raw",
					"raw": "{\r\n    \"email\": \"jane@mail.com\",\r\n    \"password\": \"jane123\",\r\n    \"isAdmin\": \"true\"\r\n    \r\n}",
					"options": {
						"raw": {
							"language": "json"
						}
					}
				},
				"url": {
					"raw": "localhost:4000/user/register",
					"host": [
						"localhost"
					],
					"port": "4000",
					"path": [
						"user",
						"register"
					]
				}
			},
			"response": []
		},
		{
			"name": "User_Authentication",
			"request": {
				"method": "POST",
				"header": [],
				"body": {
					"mode": "raw",
					"raw": "{\r\n    \"email\": \"jane@mail.com\",\r\n    \"password\": \"jane123\"\r\n}",
					"options": {
						"raw": {
							"language": "json"
						}
					}
				},
				"url": {
					"raw": "localhost:4000/user/login",
					"host": [
						"localhost"
					],
					"port": "4000",
					"path": [
						"user",
						"login"
					]
				}
			},
			"response": []
		},
		{
			"name": "Create_Product",
			"request": {
				"auth": {
					"type": "bearer",
					"bearer": [
						{
							"key": "token",
							"value": "eyJhbGciOiJIUzI1NiIsInR5cCI6IkpXVCJ9.eyJfaWQiOiI2M2RmOTBmYTFjNGRjZmNjOTM3MTUzNmMiLCJlbWFpbCI6ImVtbWFuQG1haWwuY29tIiwiaXNBZG1pbiI6dHJ1ZSwiaWF0IjoxNjc1NTk2MTM5fQ.QjGpgeAZk-_0xLPCXAaH89ou630JdUxOZQFdgtPSmyA",
							"type": "string"
						}
					]
				},
				"method": "POST",
				"header": [],
				"body": {
					"mode": "raw",
					"raw": "{\r\n    \"name\" : \"Introduction to CSS\",\r\n    \"description\" : \"Learn the step by step guide for CSS\",\r\n    \"price\" : 300\r\n}",
					"options": {
						"raw": {
							"language": "json"
						}
					}
				},
				"url": {
					"raw": "localhost:4000/product/",
					"host": [
						"localhost"
					],
					"port": "4000",
					"path": [
						"product",
						""
					]
				}
			},
			"response": []
		},
		{
			"name": "Retrieve_all_products",
			"request": {
				"method": "GET",
				"header": []
			},
			"response": []
		},
		{
			"name": "Retrive_single_product",
			"request": {
				"method": "GET",
				"header": [],
				"url": {
					"raw": "localhost:4000/product/63df941f205ba5ae22ffab3e",
					"host": [
						"localhost"
					],
					"port": "4000",
					"path": [
						"product",
						"63df941f205ba5ae22ffab3e"
					]
				}
			},
			"response": []
		},
		{
			"name": "Update_Product_information",
			"request": {
				"auth": {
					"type": "bearer",
					"bearer": [
						{
							"key": "token",
							"value": "eyJhbGciOiJIUzI1NiIsInR5cCI6IkpXVCJ9.eyJfaWQiOiI2M2RmOTBmYTFjNGRjZmNjOTM3MTUzNmMiLCJlbWFpbCI6ImVtbWFuQG1haWwuY29tIiwiaXNBZG1pbiI6dHJ1ZSwiaWF0IjoxNjc1NTk2MTM5fQ.QjGpgeAZk-_0xLPCXAaH89ou630JdUxOZQFdgtPSmyA",
							"type": "string"
						}
					]
				},
				"method": "PUT",
				"header": [],
				"body": {
					"mode": "raw",
					"raw": "{\r\n    \"price\": 1000,\r\n    \"isActive\": \"false\"\r\n}",
					"options": {
						"raw": {
							"language": "json"
						}
					}
				},
				"url": {
					"raw": "localhost:4000/product/63df941f205ba5ae22ffab3e/updateproduct",
					"host": [
						"localhost"
					],
					"port": "4000",
					"path": [
						"product",
						"63df941f205ba5ae22ffab3e",
						"updateproduct"
					]
				}
			},
			"response": []
		},
		{
			"name": "Archive_product",
			"request": {
				"auth": {
					"type": "bearer",
					"bearer": [
						{
							"key": "token",
							"value": "eyJhbGciOiJIUzI1NiIsInR5cCI6IkpXVCJ9.eyJfaWQiOiI2M2RmOTBmYTFjNGRjZmNjOTM3MTUzNmMiLCJlbWFpbCI6ImVtbWFuQG1haWwuY29tIiwiaXNBZG1pbiI6dHJ1ZSwiaWF0IjoxNjc1NTk2MTM5fQ.QjGpgeAZk-_0xLPCXAaH89ou630JdUxOZQFdgtPSmyA",
							"type": "string"
						}
					]
				},
				"method": "PUT",
				"header": [],
				"url": {
					"raw": "localhost:4000/product/63df91731c4dcfcc93715372/archiveproduct",
					"host": [
						"localhost"
					],
					"port": "4000",
					"path": [
						"product",
						"63df91731c4dcfcc93715372",
						"archiveproduct"
					]
				}
			},
			"response": []
		},
		{
			"name": "Retrieve_user_details",
			"request": {
				"auth": {
					"type": "bearer",
					"bearer": [
						{
							"key": "token",
							"value": "eyJhbGciOiJIUzI1NiIsInR5cCI6IkpXVCJ9.eyJfaWQiOiI2M2RmOGIwODI3YzQ2NjNkZmIzYzUzNTEiLCJlbWFpbCI6ImphbmVAbWFpbC5jb20iLCJpc0FkbWluIjpmYWxzZSwiaWF0IjoxNjc1NjAzMzgzfQ.alg2zJVaqm1hflIojvyv_AhVJTVKQt3RFB_210f-NXc",
							"type": "string"
						}
					]
				},
				"method": "GET",
				"header": [],
				"url": {
					"raw": "localhost:4000/user/details",
					"host": [
						"localhost"
					],
					"port": "4000",
					"path": [
						"user",
						"details"
					]
				}
			},
			"response": []
		},
		{
			"name": "Add_to_cart",
			"request": {
				"method": "GET",
				"header": []
			},
			"response": []
		},
		{
			"name": "Create Order",
			"request": {
				"auth": {
					"type": "bearer",
					"bearer": [
						{
							"key": "token",
							"value": "eyJhbGciOiJIUzI1NiIsInR5cCI6IkpXVCJ9.eyJfaWQiOiI2M2UyODAxODEwMDlkYWY1OTNiZjIyYTEiLCJlbWFpbCI6Iml2eUBtYWlsLmNvbSIsImlzQWRtaW4iOmZhbHNlLCJpYXQiOjE2NzU4MjAxMzN9.2_tV4ejEpe9bULWOxT0VmiSOAQ8T3_bzyl_mpIRbmh4",
							"type": "string"
						}
					]
				},
				"method": "POST",
				"header": [],
				"body": {
					"mode": "raw",
					"raw": "{\r\n    \"products\": {\r\n                \"productId\": \"63df941f205ba5ae22ffab3e\",\r\n                \"quantity\": 5,\r\n                \"price\": 2000\r\n    }\r\n    \r\n}",
					"options": {
						"raw": {
							"language": "json"
						}
					}
				},
				"url": {
					"raw": "localhost:4000/order/checkout",
					"host": [
						"localhost"
					],
					"port": "4000",
					"path": [
						"order",
						"checkout"
					]
				}
			},
			"response": []
		},
		{
			"name": "New Request",
			"request": {
				"method": "GET",
				"header": []
			},
			"response": []
		}
	],
	"variable": [
		{
			"key": "Admin",
			"value": "eyJhbGciOiJIUzI1NiIsInR5cCI6IkpXVCJ9.eyJfaWQiOiI2M2RmOTBmYTFjNGRjZmNjOTM3MTUzNmMiLCJlbWFpbCI6ImVtbWFuQG1haWwuY29tIiwiaXNBZG1pbiI6dHJ1ZSwiaWF0IjoxNjc1Nzc4OTMxfQ.p6FlJETf0HXmNGF4r5KUgyvUb2XnQqzFFzuAq74zn9c"
		},
		{
			"key": "notAdmin",
			"value": "eyJhbGciOiJIUzI1NiIsInR5cCI6IkpXVCJ9.eyJfaWQiOiI2M2RmOGIwODI3YzQ2NjNkZmIzYzUzNTEiLCJlbWFpbCI6ImphbmVAbWFpbC5jb20iLCJpc0FkbWluIjpmYWxzZSwiaWF0IjoxNjc1Nzc5MDI5fQ.jsMHApJbY1Pe7lvmOnNV4EwmZW10oLvecqNCKNg1DK8"
		}
	]
}